Project_ESL_NCO/testbench.vcd
$date
    Tue Dec  7 13:28:05 2021
$end
$version
    MyHDL 0.11
$end
$timescale
    1ns
$end

$scope module testbench $end
$var reg 32 ! count $end
$var reg 32 " FCW $end
$var reg 32 # Poff $end
$var reg 11 $ Acc $end
$var reg 8 % sin $end
$var reg 8 & cos $end
$var reg 1 ' clock $end
$var reg 1 ( enable $end
$var reg 1 ) reset $end
$scope module inc0 $end
$var reg 1 ' clock $end
$var reg 1 ) reset $end
$var reg 32 " FCW $end
$var reg 32 ! count $end
$var reg 1 ( enable $end
$upscope $end
$scope module PA0 $end
$var reg 1 ' clock $end
$var reg 1 ) reset $end
$var reg 11 $ acc $end
$var reg 32 ! count $end
$var reg 1 ( enable $end
$var reg 32 # p_off $end
$upscope $end
$scope module wave0 $end
$var reg 1 ' clock $end
$var reg 1 ) reset $end
$var reg 8 & cos $end
$var reg 1 ( enable $end
$var reg 11 $ sample $end
$var reg 8 % sin $end
$scope module mem $end
$var reg 8 * mem(0) $end
$var reg 8 + mem(1) $end
$var reg 8 , mem(2) $end
$var reg 8 - mem(3) $end
$var reg 8 . mem(4) $end
$var reg 8 / mem(5) $end
$var reg 8 0 mem(6) $end
$var reg 8 1 mem(7) $end
$var reg 8 2 mem(8) $end
$var reg 8 3 mem(9) $end
$var reg 8 4 mem(10) $end
$var reg 8 5 mem(11) $end
$var reg 8 6 mem(12) $end
$var reg 8 7 mem(13) $end
$var reg 8 8 mem(14) $end
$var reg 8 9 mem(15) $end
$var reg 8 : mem(16) $end
$var reg 8 ; mem(17) $end
$var reg 8 < mem(18) $end
$var reg 8 = mem(19) $end
$var reg 8 > mem(20) $end
$var reg 8 ? mem(21) $end
$var reg 8 @ mem(22) $end
$var reg 8 A mem(23) $end
$var reg 8 B mem(24) $end
$var reg 8 C mem(25) $end
$var reg 8 D mem(26) $end
$var reg 8 E mem(27) $end
$var reg 8 F mem(28) $end
$var reg 8 G mem(29) $end
$var reg 8 H mem(30) $end
$var reg 8 I mem(31) $end
$var reg 8 J mem(32) $end
$var reg 8 K mem(33) $end
$var reg 8 L mem(34) $end
$var reg 8 M mem(35) $end
$var reg 8 N mem(36) $end
$var reg 8 O mem(37) $end
$var reg 8 P mem(38) $end
$var reg 8 Q mem(39) $end
$var reg 8 R mem(40) $end
$var reg 8 S mem(41) $end
$var reg 8 T mem(42) $end
$var reg 8 U mem(43) $end
$var reg 8 V mem(44) $end
$var reg 8 W mem(45) $end
$var reg 8 X mem(46) $end
$var reg 8 Y mem(47) $end
$var reg 8 Z mem(48) $end
$var reg 8 [ mem(49) $end
$var reg 8 \ mem(50) $end
$var reg 8 ] mem(51) $end
$var reg 8 ^ mem(52) $end
$var reg 8 _ mem(53) $end
$var reg 8 ` mem(54) $end
$var reg 8 a mem(55) $end
$var reg 8 b mem(56) $end
$var reg 8 c mem(57) $end
$var reg 8 d mem(58) $end
$var reg 8 e mem(59) $end
$var reg 8 f mem(60) $end
$var reg 8 g mem(61) $end
$var reg 8 h mem(62) $end
$var reg 8 i mem(63) $end
$var reg 8 j mem(64) $end
$var reg 8 k mem(65) $end
$var reg 8 l mem(66) $end
$var reg 8 m mem(67) $end
$var reg 8 n mem(68) $end
$var reg 8 o mem(69) $end
$var reg 8 p mem(70) $end
$var reg 8 q mem(71) $end
$var reg 8 r mem(72) $end
$var reg 8 s mem(73) $end
$var reg 8 t mem(74) $end
$var reg 8 u mem(75) $end
$var reg 8 v mem(76) $end
$var reg 8 w mem(77) $end
$var reg 8 x mem(78) $end
$var reg 8 y mem(79) $end
$var reg 8 z mem(80) $end
$var reg 8 { mem(81) $end
$var reg 8 | mem(82) $end
$var reg 8 } mem(83) $end
$var reg 8 ~ mem(84) $end
$var reg 8 "! mem(85) $end
$var reg 8 "" mem(86) $end
$var reg 8 "# mem(87) $end
$var reg 8 "$ mem(88) $end
$var reg 8 "% mem(89) $end
$var reg 8 "& mem(90) $end
$var reg 8 "' mem(91) $end
$var reg 8 "( mem(92) $end
$var reg 8 ") mem(93) $end
$var reg 8 "* mem(94) $end
$var reg 8 "+ mem(95) $end
$var reg 8 ", mem(96) $end
$var reg 8 "- mem(97) $end
$var reg 8 ". mem(98) $end
$var reg 8 "/ mem(99) $end
$var reg 8 "0 mem(100) $end
$var reg 8 "1 mem(101) $end
$var reg 8 "2 mem(102) $end
$var reg 8 "3 mem(103) $end
$var reg 8 "4 mem(104) $end
$var reg 8 "5 mem(105) $end
$var reg 8 "6 mem(106) $end
$var reg 8 "7 mem(107) $end
$var reg 8 "8 mem(108) $end
$var reg 8 "9 mem(109) $end
$var reg 8 ": mem(110) $end
$var reg 8 "; mem(111) $end
$var reg 8 "< mem(112) $end
$var reg 8 "= mem(113) $end
$var reg 8 "> mem(114) $end
$var reg 8 "? mem(115) $end
$var reg 8 "@ mem(116) $end
$var reg 8 "A mem(117) $end
$var reg 8 "B mem(118) $end
$var reg 8 "C mem(119) $end
$var reg 8 "D mem(120) $end
$var reg 8 "E mem(121) $end
$var reg 8 "F mem(122) $end
$var reg 8 "G mem(123) $end
$var reg 8 "H mem(124) $end
$var reg 8 "I mem(125) $end
$var reg 8 "J mem(126) $end
$var reg 8 "K mem(127) $end
$var reg 8 "L mem(128) $end
$var reg 8 "M mem(129) $end
$var reg 8 "N mem(130) $end
$var reg 8 "O mem(131) $end
$var reg 8 "P mem(132) $end
$var reg 8 "Q mem(133) $end
$var reg 8 "R mem(134) $end
$var reg 8 "S mem(135) $end
$var reg 8 "T mem(136) $end
$var reg 8 "U mem(137) $end
$var reg 8 "V mem(138) $end
$var reg 8 "W mem(139) $end
$var reg 8 "X mem(140) $end
$var reg 8 "Y mem(141) $end
$var reg 8 "Z mem(142) $end
$var reg 8 "[ mem(143) $end
$var reg 8 "\ mem(144) $end
$var reg 8 "] mem(145) $end
$var reg 8 "^ mem(146) $end
$var reg 8 "_ mem(147) $end
$var reg 8 "` mem(148) $end
$var reg 8 "a mem(149) $end
$var reg 8 "b mem(150) $end
$var reg 8 "c mem(151) $end
$var reg 8 "d mem(152) $end
$var reg 8 "e mem(153) $end
$var reg 8 "f mem(154) $end
$var reg 8 "g mem(155) $end
$var reg 8 "h mem(156) $end
$var reg 8 "i mem(157) $end
$var reg 8 "j mem(158) $end
$var reg 8 "k mem(159) $end
$var reg 8 "l mem(160) $end
$var reg 8 "m mem(161) $end
$var reg 8 "n mem(162) $end
$var reg 8 "o mem(163) $end
$var reg 8 "p mem(164) $end
$var reg 8 "q mem(165) $end
$var reg 8 "r mem(166) $end
$var reg 8 "s mem(167) $end
$var reg 8 "t mem(168) $end
$var reg 8 "u mem(169) $end
$var reg 8 "v mem(170) $end
$var reg 8 "w mem(171) $end
$var reg 8 "x mem(172) $end
$var reg 8 "y mem(173) $end
$var reg 8 "z mem(174) $end
$var reg 8 "{ mem(175) $end
$var reg 8 "| mem(176) $end
$var reg 8 "} mem(177) $end
$var reg 8 "~ mem(178) $end
$var reg 8 #! mem(179) $end
$var reg 8 #" mem(180) $end
$var reg 8 ## mem(181) $end
$var reg 8 #$ mem(182) $end
$var reg 8 #% mem(183) $end
$var reg 8 #& mem(184) $end
$var reg 8 #' mem(185) $end
$var reg 8 #( mem(186) $end
$var reg 8 #) mem(187) $end
$var reg 8 #* mem(188) $end
$var reg 8 #+ mem(189) $end
$var reg 8 #, mem(190) $end
$var reg 8 #- mem(191) $end
$var reg 8 #. mem(192) $end
$var reg 8 #/ mem(193) $end
$var reg 8 #0 mem(194) $end
$var reg 8 #1 mem(195) $end
$var reg 8 #2 mem(196) $end
$var reg 8 #3 mem(197) $end
$var reg 8 #4 mem(198) $end
$var reg 8 #5 mem(199) $end
$var reg 8 #6 mem(200) $end
$var reg 8 #7 mem(201) $end
$var reg 8 #8 mem(202) $end
$var reg 8 #9 mem(203) $end
$var reg 8 #: mem(204) $end
$var reg 8 #; mem(205) $end
$var reg 8 #< mem(206) $end
$var reg 8 #= mem(207) $end
$var reg 8 #> mem(208) $end
$var reg 8 #? mem(209) $end
$var reg 8 #@ mem(210) $end
$var reg 8 #A mem(211) $end
$var reg 8 #B mem(212) $end
$var reg 8 #C mem(213) $end
$var reg 8 #D mem(214) $end
$var reg 8 #E mem(215) $end
$var reg 8 #F mem(216) $end
$var reg 8 #G mem(217) $end
$var reg 8 #H mem(218) $end
$var reg 8 #I mem(219) $end
$var reg 8 #J mem(220) $end
$var reg 8 #K mem(221) $end
$var reg 8 #L mem(222) $end
$var reg 8 #M mem(223) $end
$var reg 8 #N mem(224) $end
$var reg 8 #O mem(225) $end
$var reg 8 #P mem(226) $end
$var reg 8 #Q mem(227) $end
$var reg 8 #R mem(228) $end
$var reg 8 #S mem(229) $end
$var reg 8 #T mem(230) $end
$var reg 8 #U mem(231) $end
$var reg 8 #V mem(232) $end
$var reg 8 #W mem(233) $end
$var reg 8 #X mem(234) $end
$var reg 8 #Y mem(235) $end
$var reg 8 #Z mem(236) $end
$var reg 8 #[ mem(237) $end
$var reg 8 #\ mem(238) $end
$var reg 8 #] mem(239) $end
$var reg 8 #^ mem(240) $end
$var reg 8 #_ mem(241) $end
$var reg 8 #` mem(242) $end
$var reg 8 #a mem(243) $end
$var reg 8 #b mem(244) $end
$var reg 8 #c mem(245) $end
$var reg 8 #d mem(246) $end
$var reg 8 #e mem(247) $end
$var reg 8 #f mem(248) $end
$var reg 8 #g mem(249) $end
$var reg 8 #h mem(250) $end
$var reg 8 #i mem(251) $end
$var reg 8 #j mem(252) $end
$var reg 8 #k mem(253) $end
$var reg 8 #l mem(254) $end
$var reg 8 #m mem(255) $end
$var reg 8 #n mem(256) $end
$var reg 8 #o mem(257) $end
$var reg 8 #p mem(258) $end
$var reg 8 #q mem(259) $end
$var reg 8 #r mem(260) $end
$var reg 8 #s mem(261) $end
$var reg 8 #t mem(262) $end
$var reg 8 #u mem(263) $end
$var reg 8 #v mem(264) $end
$var reg 8 #w mem(265) $end
$var reg 8 #x mem(266) $end
$var reg 8 #y mem(267) $end
$var reg 8 #z mem(268) $end
$var reg 8 #{ mem(269) $end
$var reg 8 #| mem(270) $end
$var reg 8 #} mem(271) $end
$var reg 8 #~ mem(272) $end
$var reg 8 $! mem(273) $end
$var reg 8 $" mem(274) $end
$var reg 8 $# mem(275) $end
$var reg 8 $$ mem(276) $end
$var reg 8 $% mem(277) $end
$var reg 8 $& mem(278) $end
$var reg 8 $' mem(279) $end
$var reg 8 $( mem(280) $end
$var reg 8 $) mem(281) $end
$var reg 8 $* mem(282) $end
$var reg 8 $+ mem(283) $end
$var reg 8 $, mem(284) $end
$var reg 8 $- mem(285) $end
$var reg 8 $. mem(286) $end
$var reg 8 $/ mem(287) $end
$var reg 8 $0 mem(288) $end
$var reg 8 $1 mem(289) $end
$var reg 8 $2 mem(290) $end
$var reg 8 $3 mem(291) $end
$var reg 8 $4 mem(292) $end
$var reg 8 $5 mem(293) $end
$var reg 8 $6 mem(294) $end
$var reg 8 $7 mem(295) $end
$var reg 8 $8 mem(296) $end
$var reg 8 $9 mem(297) $end
$var reg 8 $: mem(298) $end
$var reg 8 $; mem(299) $end
$var reg 8 $< mem(300) $end
$var reg 8 $= mem(301) $end
$var reg 8 $> mem(302) $end
$var reg 8 $? mem(303) $end
$var reg 8 $@ mem(304) $end
$var reg 8 $A mem(305) $end
$var reg 8 $B mem(306) $end
$var reg 8 $C mem(307) $end
$var reg 8 $D mem(308) $end
$var reg 8 $E mem(309) $end
$var reg 8 $F mem(310) $end
$var reg 8 $G mem(311) $end
$var reg 8 $H mem(312) $end
$var reg 8 $I mem(313) $end
$var reg 8 $J mem(314) $end
$var reg 8 $K mem(315) $end
$var reg 8 $L mem(316) $end
$var reg 8 $M mem(317) $end
$var reg 8 $N mem(318) $end
$var reg 8 $O mem(319) $end
$var reg 8 $P mem(320) $end
$var reg 8 $Q mem(321) $end
$var reg 8 $R mem(322) $end
$var reg 8 $S mem(323) $end
$var reg 8 $T mem(324) $end
$var reg 8 $U mem(325) $end
$var reg 8 $V mem(326) $end
$var reg 8 $W mem(327) $end
$var reg 8 $X mem(328) $end
$var reg 8 $Y mem(329) $end
$var reg 8 $Z mem(330) $end
$var reg 8 $[ mem(331) $end
$var reg 8 $\ mem(332) $end
$var reg 8 $] mem(333) $end
$var reg 8 $^ mem(334) $end
$var reg 8 $_ mem(335) $end
$var reg 8 $` mem(336) $end
$var reg 8 $a mem(337) $end
$var reg 8 $b mem(338) $end
$var reg 8 $c mem(339) $end
$var reg 8 $d mem(340) $end
$var reg 8 $e mem(341) $end
$var reg 8 $f mem(342) $end
$var reg 8 $g mem(343) $end
$var reg 8 $h mem(344) $end
$var reg 8 $i mem(345) $end
$var reg 8 $j mem(346) $end
$var reg 8 $k mem(347) $end
$var reg 8 $l mem(348) $end
$var reg 8 $m mem(349) $end
$var reg 8 $n mem(350) $end
$var reg 8 $o mem(351) $end
$var reg 8 $p mem(352) $end
$var reg 8 $q mem(353) $end
$var reg 8 $r mem(354) $end
$var reg 8 $s mem(355) $end
$var reg 8 $t mem(356) $end
$var reg 8 $u mem(357) $end
$var reg 8 $v mem(358) $end
$var reg 8 $w mem(359) $end
$var reg 8 $x mem(360) $end
$var reg 8 $y mem(361) $end
$var reg 8 $z mem(362) $end
$var reg 8 ${ mem(363) $end
$var reg 8 $| mem(364) $end
$var reg 8 $} mem(365) $end
$var reg 8 $~ mem(366) $end
$var reg 8 %! mem(367) $end
$var reg 8 %" mem(368) $end
$var reg 8 %# mem(369) $end
$var reg 8 %$ mem(370) $end
$var reg 8 %% mem(371) $end
$var reg 8 %& mem(372) $end
$var reg 8 %' mem(373) $end
$var reg 8 %( mem(374) $end
$var reg 8 %) mem(375) $end
$var reg 8 %* mem(376) $end
$var reg 8 %+ mem(377) $end
$var reg 8 %, mem(378) $end
$var reg 8 %- mem(379) $end
$var reg 8 %. mem(380) $end
$var reg 8 %/ mem(381) $end
$var reg 8 %0 mem(382) $end
$var reg 8 %1 mem(383) $end
$var reg 8 %2 mem(384) $end
$var reg 8 %3 mem(385) $end
$var reg 8 %4 mem(386) $end
$var reg 8 %5 mem(387) $end
$var reg 8 %6 mem(388) $end
$var reg 8 %7 mem(389) $end
$var reg 8 %8 mem(390) $end
$var reg 8 %9 mem(391) $end
$var reg 8 %: mem(392) $end
$var reg 8 %; mem(393) $end
$var reg 8 %< mem(394) $end
$var reg 8 %= mem(395) $end
$var reg 8 %> mem(396) $end
$var reg 8 %? mem(397) $end
$var reg 8 %@ mem(398) $end
$var reg 8 %A mem(399) $end
$var reg 8 %B mem(400) $end
$var reg 8 %C mem(401) $end
$var reg 8 %D mem(402) $end
$var reg 8 %E mem(403) $end
$var reg 8 %F mem(404) $end
$var reg 8 %G mem(405) $end
$var reg 8 %H mem(406) $end
$var reg 8 %I mem(407) $end
$var reg 8 %J mem(408) $end
$var reg 8 %K mem(409) $end
$var reg 8 %L mem(410) $end
$var reg 8 %M mem(411) $end
$var reg 8 %N mem(412) $end
$var reg 8 %O mem(413) $end
$var reg 8 %P mem(414) $end
$var reg 8 %Q mem(415) $end
$var reg 8 %R mem(416) $end
$var reg 8 %S mem(417) $end
$var reg 8 %T mem(418) $end
$var reg 8 %U mem(419) $end
$var reg 8 %V mem(420) $end
$var reg 8 %W mem(421) $end
$var reg 8 %X mem(422) $end
$var reg 8 %Y mem(423) $end
$var reg 8 %Z mem(424) $end
$var reg 8 %[ mem(425) $end
$var reg 8 %\ mem(426) $end
$var reg 8 %] mem(427) $end
$var reg 8 %^ mem(428) $end
$var reg 8 %_ mem(429) $end
$var reg 8 %` mem(430) $end
$var reg 8 %a mem(431) $end
$var reg 8 %b mem(432) $end
$var reg 8 %c mem(433) $end
$var reg 8 %d mem(434) $end
$var reg 8 %e mem(435) $end
$var reg 8 %f mem(436) $end
$var reg 8 %g mem(437) $end
$var reg 8 %h mem(438) $end
$var reg 8 %i mem(439) $end
$var reg 8 %j mem(440) $end
$var reg 8 %k mem(441) $end
$var reg 8 %l mem(442) $end
$var reg 8 %m mem(443) $end
$var reg 8 %n mem(444) $end
$var reg 8 %o mem(445) $end
$var reg 8 %p mem(446) $end
$var reg 8 %q mem(447) $end
$var reg 8 %r mem(448) $end
$var reg 8 %s mem(449) $end
$var reg 8 %t mem(450) $end
$var reg 8 %u mem(451) $end
$var reg 8 %v mem(452) $end
$var reg 8 %w mem(453) $end
$var reg 8 %x mem(454) $end
$var reg 8 %y mem(455) $end
$var reg 8 %z mem(456) $end
$var reg 8 %{ mem(457) $end
$var reg 8 %| mem(458) $end
$var reg 8 %} mem(459) $end
$var reg 8 %~ mem(460) $end
$var reg 8 &! mem(461) $end
$var reg 8 &" mem(462) $end
$var reg 8 &# mem(463) $end
$var reg 8 &$ mem(464) $end
$var reg 8 &% mem(465) $end
$var reg 8 && mem(466) $end
$var reg 8 &' mem(467) $end
$var reg 8 &( mem(468) $end
$var reg 8 &) mem(469) $end
$var reg 8 &* mem(470) $end
$var reg 8 &+ mem(471) $end
$var reg 8 &, mem(472) $end
$var reg 8 &- mem(473) $end
$var reg 8 &. mem(474) $end
$var reg 8 &/ mem(475) $end
$var reg 8 &0 mem(476) $end
$var reg 8 &1 mem(477) $end
$var reg 8 &2 mem(478) $end
$var reg 8 &3 mem(479) $end
$var reg 8 &4 mem(480) $end
$var reg 8 &5 mem(481) $end
$var reg 8 &6 mem(482) $end
$var reg 8 &7 mem(483) $end
$var reg 8 &8 mem(484) $end
$var reg 8 &9 mem(485) $end
$var reg 8 &: mem(486) $end
$var reg 8 &; mem(487) $end
$var reg 8 &< mem(488) $end
$var reg 8 &= mem(489) $end
$var reg 8 &> mem(490) $end
$var reg 8 &? mem(491) $end
$var reg 8 &@ mem(492) $end
$var reg 8 &A mem(493) $end
$var reg 8 &B mem(494) $end
$var reg 8 &C mem(495) $end
$var reg 8 &D mem(496) $end
$var reg 8 &E mem(497) $end
$var reg 8 &F mem(498) $end
$var reg 8 &G mem(499) $end
$var reg 8 &H mem(500) $end
$var reg 8 &I mem(501) $end
$var reg 8 &J mem(502) $end
$var reg 8 &K mem(503) $end
$var reg 8 &L mem(504) $end
$var reg 8 &M mem(505) $end
$var reg 8 &N mem(506) $end
$var reg 8 &O mem(507) $end
$var reg 8 &P mem(508) $end
$var reg 8 &Q mem(509) $end
$var reg 8 &R mem(510) $end
$var reg 8 &S mem(511) $end
$upscope $end
$upscope $end
$upscope $end

$enddefinitions $end
$dumpvars
b00000000000000000000000000000000 !
b00000000000011110100001001000000 "
b00000000000000000000000001100100 #
b00000000000 $
b00000000 %
b00000000 &
0'
1(
0)
b00000000 *
b00000000 +
b00000001 ,
b00000001 -
b00000010 .
b00000010 /
b00000010 0
b00000011 1
b00000011 2
b00000011 3
b00000100 4
b00000100 5
b00000101 6
b00000101 7
b00000101 8
b00000110 9
b00000110 :
b00000111 ;
b00000111 <
b00000111 =
b00001000 >
b00001000 ?
b00001000 @
b00001001 A
b00001001 B
b00001010 C
b00001010 D
b00001010 E
b00001011 F
b00001011 G
b00001100 H
b00001100 I
b00001100 J
b00001101 K
b00001101 L
b00001110 M
b00001110 N
b00001110 O
b00001111 P
b00001111 Q
b00001111 R
b00010000 S
b00010000 T
b00010001 U
b00010001 V
b00010001 W
b00010010 X
b00010010 Y
b00010010 Z
b00010011 [
b00010011 \
b00010100 ]
b00010100 ^
b00010100 _
b00010101 `
b00010101 a
b00010110 b
b00010110 c
b00010110 d
b00010111 e
b00010111 f
b00010111 g
b00011000 h
b00011000 i
b00011001 j
b00011001 k
b00011001 l
b00011010 m
b00011010 n
b00011010 o
b00011011 p
b00011011 q
b00011100 r
b00011100 s
b00011100 t
b00011101 u
b00011101 v
b00011101 w
b00011110 x
b00011110 y
b00011111 z
b00011111 {
b00011111 |
b00100000 }
b00100000 ~
b00100000 "!
b00100001 ""
b00100001 "#
b00100010 "$
b00100010 "%
b00100010 "&
b00100011 "'
b00100011 "(
b00100011 ")
b00100100 "*
b00100100 "+
b00100101 ",
b00100101 "-
b00100101 ".
b00100110 "/
b00100110 "0
b00100110 "1
b00100111 "2
b00100111 "3
b00101000 "4
b00101000 "5
b00101000 "6
b00101001 "7
b00101001 "8
b00101001 "9
b00101010 ":
b00101010 ";
b00101010 "<
b00101011 "=
b00101011 ">
b00101100 "?
b00101100 "@
b00101100 "A
b00101101 "B
b00101101 "C
b00101101 "D
b00101110 "E
b00101110 "F
b00101110 "G
b00101111 "H
b00101111 "I
b00110000 "J
b00110000 "K
b00110000 "L
b00110001 "M
b00110001 "N
b00110001 "O
b00110010 "P
b00110010 "Q
b00110010 "R
b00110011 "S
b00110011 "T
b00110011 "U
b00110100 "V
b00110100 "W
b00110100 "X
b00110101 "Y
b00110101 "Z
b00110110 "[
b00110110 "\
b00110110 "]
b00110111 "^
b00110111 "_
b00110111 "`
b00111000 "a
b00111000 "b
b00111000 "c
b00111001 "d
b00111001 "e
b00111001 "f
b00111010 "g
b00111010 "h
b00111010 "i
b00111011 "j
b00111011 "k
b00111011 "l
b00111100 "m
b00111100 "n
b00111100 "o
b00111101 "p
b00111101 "q
b00111101 "r
b00111110 "s
b00111110 "t
b00111110 "u
b00111111 "v
b00111111 "w
b00111111 "x
b01000000 "y
b01000000 "z
b01000000 "{
b01000001 "|
b01000001 "}
b01000001 "~
b01000010 #!
b01000010 #"
b01000010 ##
b01000011 #$
b01000011 #%
b01000011 #&
b01000100 #'
b01000100 #(
b01000100 #)
b01000101 #*
b01000101 #+
b01000101 #,
b01000110 #-
b01000110 #.
b01000110 #/
b01000111 #0
b01000111 #1
b01000111 #2
b01001000 #3
b01001000 #4
b01001000 #5
b01001001 #6
b01001001 #7
b01001001 #8
b01001001 #9
b01001010 #:
b01001010 #;
b01001010 #<
b01001011 #=
b01001011 #>
b01001011 #?
b01001100 #@
b01001100 #A
b01001100 #B
b01001101 #C
b01001101 #D
b01001101 #E
b01001110 #F
b01001110 #G
b01001110 #H
b01001110 #I
b01001111 #J
b01001111 #K
b01001111 #L
b01010000 #M
b01010000 #N
b01010000 #O
b01010001 #P
b01010001 #Q
b01010001 #R
b01010001 #S
b01010010 #T
b01010010 #U
b01010010 #V
b01010011 #W
b01010011 #X
b01010011 #Y
b01010011 #Z
b01010100 #[
b01010100 #\
b01010100 #]
b01010101 #^
b01010101 #_
b01010101 #`
b01010101 #a
b01010110 #b
b01010110 #c
b01010110 #d
b01010111 #e
b01010111 #f
b01010111 #g
b01010111 #h
b01011000 #i
b01011000 #j
b01011000 #k
b01011001 #l
b01011001 #m
b01011001 #n
b01011001 #o
b01011010 #p
b01011010 #q
b01011010 #r
b01011010 #s
b01011011 #t
b01011011 #u
b01011011 #v
b01011100 #w
b01011100 #x
b01011100 #y
b01011100 #z
b01011101 #{
b01011101 #|
b01011101 #}
b01011101 #~
b01011110 $!
b01011110 $"
b01011110 $#
b01011110 $$
b01011111 $%
b01011111 $&
b01011111 $'
b01011111 $(
b01100000 $)
b01100000 $*
b01100000 $+
b01100000 $,
b01100001 $-
b01100001 $.
b01100001 $/
b01100001 $0
b01100010 $1
b01100010 $2
b01100010 $3
b01100010 $4
b01100011 $5
b01100011 $6
b01100011 $7
b01100011 $8
b01100100 $9
b01100100 $:
b01100100 $;
b01100100 $<
b01100101 $=
b01100101 $>
b01100101 $?
b01100101 $@
b01100101 $A
b01100110 $B
b01100110 $C
b01100110 $D
b01100110 $E
b01100111 $F
b01100111 $G
b01100111 $H
b01100111 $I
b01100111 $J
b01101000 $K
b01101000 $L
b01101000 $M
b01101000 $N
b01101001 $O
b01101001 $P
b01101001 $Q
b01101001 $R
b01101001 $S
b01101010 $T
b01101010 $U
b01101010 $V
b01101010 $W
b01101010 $X
b01101011 $Y
b01101011 $Z
b01101011 $[
b01101011 $\
b01101011 $]
b01101100 $^
b01101100 $_
b01101100 $`
b01101100 $a
b01101100 $b
b01101101 $c
b01101101 $d
b01101101 $e
b01101101 $f
b01101101 $g
b01101110 $h
b01101110 $i
b01101110 $j
b01101110 $k
b01101110 $l
b01101111 $m
b01101111 $n
b01101111 $o
b01101111 $p
b01101111 $q
b01101111 $r
b01110000 $s
b01110000 $t
b01110000 $u
b01110000 $v
b01110000 $w
b01110001 $x
b01110001 $y
b01110001 $z
b01110001 ${
b01110001 $|
b01110001 $}
b01110010 $~
b01110010 %!
b01110010 %"
b01110010 %#
b01110010 %$
b01110010 %%
b01110011 %&
b01110011 %'
b01110011 %(
b01110011 %)
b01110011 %*
b01110011 %+
b01110100 %,
b01110100 %-
b01110100 %.
b01110100 %/
b01110100 %0
b01110100 %1
b01110100 %2
b01110101 %3
b01110101 %4
b01110101 %5
b01110101 %6
b01110101 %7
b01110101 %8
b01110101 %9
b01110110 %:
b01110110 %;
b01110110 %<
b01110110 %=
b01110110 %>
b01110110 %?
b01110110 %@
b01110111 %A
b01110111 %B
b01110111 %C
b01110111 %D
b01110111 %E
b01110111 %F
b01110111 %G
b01110111 %H
b01111000 %I
b01111000 %J
b01111000 %K
b01111000 %L
b01111000 %M
b01111000 %N
b01111000 %O
b01111000 %P
b01111000 %Q
b01111001 %R
b01111001 %S
b01111001 %T
b01111001 %U
b01111001 %V
b01111001 %W
b01111001 %X
b01111001 %Y
b01111001 %Z
b01111010 %[
b01111010 %\
b01111010 %]
b01111010 %^
b01111010 %_
b01111010 %`
b01111010 %a
b01111010 %b
b01111010 %c
b01111010 %d
b01111011 %e
b01111011 %f
b01111011 %g
b01111011 %h
b01111011 %i
b01111011 %j
b01111011 %k
b01111011 %l
b01111011 %m
b01111011 %n
b01111011 %o
b01111011 %p
b01111100 %q
b01111100 %r
b01111100 %s
b01111100 %t
b01111100 %u
b01111100 %v
b01111100 %w
b01111100 %x
b01111100 %y
b01111100 %z
b01111100 %{
b01111100 %|
b01111100 %}
b01111100 %~
b01111100 &!
b01111101 &"
b01111101 &#
b01111101 &$
b01111101 &%
b01111101 &&
b01111101 &'
b01111101 &(
b01111101 &)
b01111101 &*
b01111101 &+
b01111101 &,
b01111101 &-
b01111101 &.
b01111101 &/
b01111101 &0
b01111101 &1
b01111101 &2
b01111101 &3
b01111101 &4
b01111101 &5
b01111101 &6
b01111110 &7
b01111110 &8
b01111110 &9
b01111110 &:
b01111110 &;
b01111110 &<
b01111110 &=
b01111110 &>
b01111110 &?
b01111110 &@
b01111110 &A
b01111110 &B
b01111110 &C
b01111110 &D
b01111110 &E
b01111110 &F
b01111110 &G
b01111110 &H
b01111110 &I
b01111110 &J
b01111110 &K
b01111110 &L
b01111110 &M
b01111110 &N
b01111110 &O
b01111110 &P
b01111110 &Q
b01111110 &R
b01111110 &S
$end
#10
1'
b00000000000011110100001001000000 !
b01111110 &
#20
0'
#30
1'
b00000000000111101000010010000000 !
#40
0'
#50
1'
b00000000001011011100011011000000 !
#60
0'
#70
1'
b00000000001 $
b00000000001111010000100100000000 !
#80
0'
#90
1'
b00000000010011000100101101000000 !
#100
0'
#110
1'
b00000000010 $
b00000000010110111000110110000000 !
#120
0'
#130
1'
b00000000011010101100111111000000 !
b00000001 %
#140
0'
#150
1'
b00000000011 $
b00000000011110100001001000000000 !
#160
0'
#170
1'
b00000000100010010101010001000000 !
#180
0'
#190
1'
b00000000100 $
b00000000100110001001011010000000 !
#200
0'
#210
1'
b00000000101001111101100011000000 !
b00000010 %
#220
0'
#230
1'
b00000000101 $
b00000000101101110001101100000000 !
#240
0'
#250
1'
b00000000110001100101110101000000 !
#260
0'
#270
1'
b00000000110 $
b00000000110101011001111110000000 !
#280
0'
#290
1'
b00000000111001001110000111000000 !
#300
0'
#310
1'
b00000000111 $
b00000000111101000010010000000000 !
#320
0'
#330
1'
b00000001000000110110011001000000 !
b00000011 %
#340
0'
#350
1'
b00000001000 $
b00000001000100101010100010000000 !
#360
0'
#370
1'
b00000001001000011110101011000000 !
#380
0'
#390
1'
b00000001001 $
b00000001001100010010110100000000 !
#400
0'
#410
1'
b00000001010000000110111101000000 !
#420
0'
#430
1'
b00000001010 $
b00000001010011111011000110000000 !
#440
0'
#450
1'
b00000001010111101111001111000000 !
b00000100 %
#460
0'
#470
1'
b00000001011011100011011000000000 !
#480
0'
#490
1'
b00000001011111010111100001000000 !
b00000001011 $
#500
0'
#510
1'
b00000001100011001011101010000000 !
#520
0'
#530
1'
b00000001100110111111110011000000 !
b00000001100 $
#540
0'
#550
1'
b00000101 %
b00000001101010110011111100000000 !
#560
0'
#570
1'
b00000001101110101000000101000000 !
b00000001101 $
#580
0'
#590
1'
b00000001110010011100001110000000 !
#600
0'
#610
1'
b00000001110110010000010111000000 !
b00000001110 $
#620
0'
#630
1'
b00000001111010000100100000000000 !
#640
0'
#650
1'
b00000001111101111000101001000000 !
b00000001111 $
#660
0'
#670
1'
b00000110 %
b00000010000001101100110010000000 !
#680
0'
#690
1'
b00000010000101100000111011000000 !
b00000010000 $
#700
0'
#710
1'
b00000010001001010101000100000000 !
#720
0'
#730
1'
b00000010001101001001001101000000 !
b00000010001 $
#740
0'
#750
1'
b00000111 %
b00000010010000111101010110000000 !
#760
0'
#770
1'
b00000010010100110001011111000000 !
b00000010010 $
#780
0'
#790
1'
b00000010011000100101101000000000 !
#800
0'
#810
1'
b00000010011100011001110001000000 !
b00000010011 $
#820
0'
#830
1'
b00000010100000001101111010000000 !
#840
0'
#850
1'
b00000010100100000010000011000000 !
b00000010100 $
#860
0'
#870
1'
b00001000 %
b00000010100111110110001100000000 !
#880
0'
#890
1'
b00000010101011101010010101000000 !
#900
0'
#910
1'
b00000010101 $
b00000010101111011110011110000000 !
#920
0'
#930
1'
b00000010110011010010100111000000 !
#940
0'
#950
1'
b00000010110 $
b00000010110111000110110000000000 !
#960
0'
#970
1'
b00000010111010111010111001000000 !
#980
0'
#990
1'
b00000010111 $
b00000010111110101111000010000000 !
#1000
0'
